209932,the
169927,and
120657,of
115905,to
100351,a
78186,i
70804,in
66698,it
59054,that
53392,was
46303,he
42824,you
39714,is
37354,for
35361,with
34819,his
34731,not
32092,but
29883,as
28477,be
28370,her
27097,my
25970,had
24543,have
22948,this
22804,she
21615,him
21553,at
21348,all
21194,on
20440,me
20432,so
20272,by
19979,they
19138,we
16651,no
15462,would
15332,from
15040,one
14948,there
14732,were
14358,or
14281,will
13797,are
13683,what
13493,if
13488,your
13451,which
12794,when
12687,do
12577,an
12556,them
11700,out
11274,could
11029,then
10856,said
10802,their
10602,now
10412,up
10315,been
9293,more
8666,time
8420,any
8345,good
8314,very
8299,well
7925,about
7810,our
7688,did
7505,who
7452,know
7354,see
7321,than
7291,man
7246,some
7038,how
6946,such
6835,like
6833,its
6815,has
6746,am
6639,upon
6500,can
6446,come
6441,never
6427,other
6350,shall
6236,go
6207,only
6141,must
6042,us
6031,down
5939,here
5872,thou
5844,little
5839,into
5829,say
5763,two
5714,made
5701,these
5630,before
5570,make
5382,think
5343,much
5325,should
5197,great
5195,mr
5044,way
4971,too
4959,day
4942,first
4933,may
4900,again
4847,sir
4820,every
4661,most
4651,after
4585,old
4559,let
4547,over
4503,where
4480,away
4479,thy
4449,got
4378,get
4319,long
4318,king
4305,thing
4207,nothing
4202,take
4158,ever
4153,own
4057,yet
